Understanding patterns of species abundance and persistence in IBC-grass
…
train <- IBC_grass.monocultures %>% sample_frac(.70)
test <- anti_join(IBC_grass.monocultures, train, by = 'id')

train <- train %>% select(-id)
test <- test %>% select(-id)

assign(x = "train", value = train, envir = .GlobalEnv)

print(train)

## # A tibble: 941 x 7
##     Year monoculture.biomass   LMR MaxMass  Gmax   SLA meanSpacerLength
##    <dbl>               <dbl> <dbl>   <int> <int> <dbl>            <dbl>
##  1   198            3248202.  0.75    1000    60  0.75              0  
##  2   187            4691218.  0.5     2000    60  0.5              17.5
##  3   195            3381968.  0.5     1000    60  1                17.5
##  4   180            9972344   0.5     1000    20  0.5               0  
##  5   200            6336651   1       2000    40  0.5               2.5
##  6   200            6585488   0.75    2000    40  0.5               2.5
##  7   200            4076116.  0.75    2000    60  0.75              0  
##  8   188            4898391.  0.75    1000    40  0.75              0  
##  9   182            5230301   0.75    1000    40  0.75              2.5
## 10   188            6051301   0.75    2000    40  0.75              0  
## #  with 931 more rows
…
